\relax 
\bibstyle{biblatex}
\bibdata{Supplement-Main-blx,Supplement}
\citation{biblatex-control}
\providecommand\HyperFirstAtBeginDocument{\AtBeginDocument}
\HyperFirstAtBeginDocument{\ifx\hyper@anchor\@undefined
\global\let\oldcontentsline\contentsline
\gdef\contentsline#1#2#3#4{\oldcontentsline{#1}{#2}{#3}}
\global\let\oldnewlabel\newlabel
\gdef\newlabel#1#2{\newlabelxx{#1}#2}
\gdef\newlabelxx#1#2#3#4#5#6{\oldnewlabel{#1}{{#2}{#3}}}
\AtEndDocument{\ifx\hyper@anchor\@undefined
\let\contentsline\oldcontentsline
\let\newlabel\oldnewlabel
\fi}
\fi}
\global\let\hyper@last\relax 
\gdef\HyperFirstAtBeginDocument#1{#1}
\providecommand*\HyPL@Entry[1]{}
\HyPL@Entry{0<</S/D>>}
\@writefile{toc}{\boolfalse {citerequest}\boolfalse {citetracker}\boolfalse {pagetracker}\boolfalse {backtracker}\relax }
\@writefile{lof}{\boolfalse {citerequest}\boolfalse {citetracker}\boolfalse {pagetracker}\boolfalse {backtracker}\relax }
\@writefile{lot}{\boolfalse {citerequest}\boolfalse {citetracker}\boolfalse {pagetracker}\boolfalse {backtracker}\relax }
\@writefile{toc}{\defcounter {refsection}{0}\relax }\@writefile{toc}{\contentsline {section}{\numberline {1}Introduction}{2}{section.1}}
\@writefile{toc}{\defcounter {refsection}{0}\relax }\@writefile{toc}{\contentsline {section}{\numberline {2}Dose response to TcdA cecal injection}{2}{section.2}}
\@writefile{lof}{\defcounter {refsection}{0}\relax }\@writefile{lof}{\contentsline {figure}{\numberline {S1}{\ignorespaces Histopathology 6h after cecal injection with TcdA.}}{2}{figure.1}}
\newlabel{fig:dose}{{S1}{2}{Histopathology 6h after cecal injection with TcdA}{figure.1}{}}
\@writefile{toc}{\defcounter {refsection}{0}\relax }\@writefile{toc}{\contentsline {section}{\numberline {3}Survival data from all cecal injection experiments}{3}{section.3}}
\@writefile{lot}{\defcounter {refsection}{0}\relax }\@writefile{lot}{\contentsline {table}{\numberline {S1}{\ignorespaces Cecal injection experiments }}{3}{table.1}}
\newlabel{tab:sizes}{{S1}{3}{Cecal injection experiments\relax }{table.1}{}}
\@writefile{lot}{\defcounter {refsection}{0}\relax }\@writefile{lot}{\contentsline {table}{\numberline {S2}{\ignorespaces Cecal injection experiments with isotype antibody pretreatment}}{3}{table.2}}
\newlabel{tab:absizes}{{S2}{3}{Cecal injection experiments with isotype antibody pretreatment\relax }{table.2}{}}
\citation{He2009}
\@writefile{toc}{\defcounter {refsection}{0}\relax }\@writefile{toc}{\contentsline {section}{\numberline {4}Cytopathic effects on a mouse, cecal, epithelial cell line}{4}{section.4}}
\abx@aux@backref{1}{He2009}{0}{4}{4}
\@writefile{lof}{\defcounter {refsection}{0}\relax }\@writefile{lof}{\contentsline {figure}{\numberline {S2}{\ignorespaces Cytopathic effects of TcdA and TcdB on a mouse epithelial cell line.}}{4}{figure.2}}
\newlabel{fig:cells}{{S2}{4}{Cytopathic effects of TcdA and TcdB on a mouse epithelial cell line}{figure.2}{}}
\@writefile{toc}{\defcounter {refsection}{0}\relax }\@writefile{toc}{\contentsline {section}{\numberline {5}Altered blood cell distributions after toxin injection}{5}{section.5}}
\@writefile{lof}{\defcounter {refsection}{0}\relax }\@writefile{lof}{\contentsline {figure}{\numberline {S3}{\ignorespaces Complete blood counts in Sham, TcdA-, or TcdB-treated mice}}{5}{figure.3}}
\newlabel{fig:cbcs}{{S3}{5}{Complete blood counts in Sham, TcdA-, or TcdB-treated mice\relax }{figure.3}{}}
\@writefile{toc}{\defcounter {refsection}{0}\relax }\@writefile{toc}{\contentsline {section}{\numberline {6}Immunohistochemstry: immune cell infiltration}{5}{section.6}}
\@writefile{lot}{\defcounter {refsection}{0}\relax }\@writefile{lot}{\contentsline {table}{\numberline {S3}{\ignorespaces Infiltration of immune cells 6h and 16h after cecal injection}}{5}{table.3}}
\newlabel{tab:ihc}{{S3}{5}{Infiltration of immune cells 6h and 16h after cecal injection\relax }{table.3}{}}
\@writefile{toc}{\defcounter {refsection}{0}\relax }\@writefile{toc}{\contentsline {section}{\numberline {7}Cell type proportions in epithelial-layer cell isolation}{6}{section.7}}
\@writefile{lof}{\defcounter {refsection}{0}\relax }\@writefile{lof}{\contentsline {figure}{\numberline {S4}{\ignorespaces Cell type proportions as determined by flow cytometry}}{6}{figure.4}}
\newlabel{fig:flow}{{S4}{6}{Cell type proportions as determined by flow cytometry\relax }{figure.4}{}}
\citation{Hirota2012}
\@writefile{toc}{\defcounter {refsection}{0}\relax }\@writefile{toc}{\contentsline {section}{\numberline {8}Comparisons of gene and protein expression of cytokines}{7}{section.8}}
\@writefile{lof}{\defcounter {refsection}{0}\relax }\@writefile{lof}{\contentsline {figure}{\numberline {S5}{\ignorespaces Cytokine gene and protein expression}}{7}{figure.5}}
\newlabel{fig:geneprotein}{{S5}{7}{Cytokine gene and protein expression\relax }{figure.5}{}}
\abx@aux@backref{2}{Hirota2012}{0}{7}{7}
\@writefile{toc}{\defcounter {refsection}{0}\relax }\@writefile{toc}{\contentsline {section}{\numberline {9}Inflammation and immune regulatory associated gene expression}{8}{section.9}}
\@writefile{lof}{\defcounter {refsection}{0}\relax }\@writefile{lof}{\contentsline {figure}{\numberline {S6}{\ignorespaces Expression changes of inflammation associated and immune regulatory genes}}{8}{figure.6}}
\newlabel{fig:inflam}{{S6}{8}{Expression changes of inflammation associated and immune regulatory genes\relax }{figure.6}{}}
\@writefile{toc}{\defcounter {refsection}{0}\relax }\@writefile{toc}{\contentsline {section}{\numberline {10}Additional measurements after Cxcl1 \& Cxcl2 neutralization}{9}{section.10}}
\@writefile{toc}{\defcounter {refsection}{0}\relax }\@writefile{toc}{\contentsline {subsection}{\numberline {10.1}\emph  {Cxcl1} and \emph  {Cxcl2} expression}{9}{subsection.10.1}}
\@writefile{lof}{\defcounter {refsection}{0}\relax }\@writefile{lof}{\contentsline {figure}{\numberline {S7}{\ignorespaces  \emph  {Cxcl1} and \emph  {Cxcl2} expression after Cxcl1 \& Cxcl2 neutralization }}{9}{figure.7}}
\newlabel{fig:qrtpcr}{{S7}{9}{\emph {Cxcl1} and \emph {Cxcl2} expression after Cxcl1 \& Cxcl2 neutralization\relax }{figure.7}{}}
\@writefile{toc}{\defcounter {refsection}{0}\relax }\@writefile{toc}{\contentsline {subsection}{\numberline {10.2}MPO positive cell infiltration}{9}{subsection.10.2}}
\@writefile{lof}{\defcounter {refsection}{0}\relax }\@writefile{lof}{\contentsline {figure}{\numberline {S8}{\ignorespaces Neutrophil infiltration 6h after TcdA cecal injection}}{9}{figure.8}}
\newlabel{fig:neutralization}{{S8}{9}{Neutrophil infiltration 6h after TcdA cecal injection\relax }{figure.8}{}}
\citation{DAuria2012}
\citation{Zeiser2013}
\@writefile{toc}{\defcounter {refsection}{0}\relax }\@writefile{toc}{\contentsline {section}{\numberline {11}\emph  {In vivo} transcriptome response \emph  {versus in vitro} transcriptome and proteome responses}{10}{section.11}}
\abx@aux@backref{3}{DAuria2012}{0}{10}{10}
\abx@aux@backref{4}{Zeiser2013}{0}{10}{10}
\@writefile{lof}{\defcounter {refsection}{0}\relax }\@writefile{lof}{\contentsline {figure}{\numberline {S9}{\ignorespaces Correlations between \emph  {in vitro} and \emph  {in vivo} responses to toxins}}{10}{figure.9}}
\newlabel{fig:correlations}{{S9}{10}{Correlations between \emph {in vitro} and \emph {in vivo} responses to toxins\relax }{figure.9}{}}
\@writefile{lof}{\defcounter {refsection}{0}\relax }\@writefile{lof}{\contentsline {figure}{\numberline {S10}{\ignorespaces Similarly expressed genes \emph  {in vitro} and \emph  {in vivo}}}{10}{figure.10}}
\newlabel{fig:commons}{{S10}{10}{Similarly expressed genes \emph {in vitro} and \emph {in vivo}\relax }{figure.10}{}}
\citation{Irizarry2003}
\citation{Wu2004}
\citation{Lim2007}
\citation{Ballman2004}
\citation{LiWong2001b}
\citation{Wang2007}
\citation{Tukey1977}
\citation{AffymetrixWhitePaper}
\citation{Tusher2001}
\citation{Smyth2004}
\citation{Smyth2005}
\citation{Baldi2001}
\citation{Benjamini1995}
\@writefile{toc}{\defcounter {refsection}{0}\relax }\@writefile{toc}{\contentsline {section}{\numberline {12}Processing microarrays}{11}{section.12}}
\@writefile{toc}{\defcounter {refsection}{0}\relax }\@writefile{toc}{\contentsline {subsection}{\numberline {12.1}Possible steps in processing microarrays}{11}{subsection.12.1}}
\@writefile{toc}{\defcounter {refsection}{0}\relax }\@writefile{toc}{\contentsline {subsection}{\numberline {12.2}Steps taken in processing microarrays}{11}{subsection.12.2}}
\abx@aux@backref{5}{Irizarry2003}{0}{11}{11}
\abx@aux@backref{6}{Wu2004}{0}{11}{11}
\abx@aux@backref{7}{Lim2007}{0}{11}{11}
\abx@aux@backref{8}{Ballman2004}{0}{11}{11}
\abx@aux@backref{9}{LiWong2001b}{0}{11}{11}
\abx@aux@backref{10}{Wang2007}{0}{11}{11}
\abx@aux@backref{11}{Tukey1977}{0}{11}{11}
\abx@aux@backref{12}{AffymetrixWhitePaper}{0}{11}{11}
\@writefile{toc}{\defcounter {refsection}{0}\relax }\@writefile{toc}{\contentsline {section}{\numberline {13}Determining differentially expressed genes}{11}{section.13}}
\newlabel{S:DE}{{13}{11}{Determining differentially expressed genes\relax }{section.13}{}}
\abx@aux@backref{13}{Tusher2001}{0}{11}{11}
\abx@aux@backref{14}{Smyth2004}{0}{11}{11}
\abx@aux@backref{15}{Smyth2005}{0}{11}{11}
\abx@aux@backref{16}{Baldi2001}{0}{11}{11}
\citation{Ackermann2009}
\citation{Wu2012}
\citation{Smyth2005}
\citation{Baldi2001}
\citation{Wu2012}
\citation{Kim2005}
\abx@aux@backref{17}{Benjamini1995}{0}{12}{12}
\@writefile{toc}{\defcounter {refsection}{0}\relax }\@writefile{toc}{\contentsline {section}{\numberline {14}Gene set enrichment}{12}{section.14}}
\abx@aux@backref{18}{Ackermann2009}{0}{12}{12}
\@writefile{toc}{\defcounter {refsection}{0}\relax }\@writefile{toc}{\contentsline {subsection}{\numberline {14.1}Competitive}{12}{subsection.14.1}}
\abx@aux@backref{19}{Wu2012}{0}{12}{12}
\abx@aux@backref{20}{Smyth2005}{0}{12}{12}
\abx@aux@backref{21}{Baldi2001}{0}{12}{12}
\@writefile{toc}{\defcounter {refsection}{0}\relax }\@writefile{toc}{\contentsline {subsection}{\numberline {14.2}Self-contained}{12}{subsection.14.2}}
\abx@aux@backref{22}{Wu2012}{0}{12}{12}
\abx@aux@backref{23}{Kim2005}{0}{12}{12}
