"ID"	"Toxin"	"Time"	"Run"
"GSM718717"	"A"	2	1
"GSM718718"	"A"	2	2
"GSM718719"	"B"	2	1
"GSM718720"	"B"	2	2
"GSM718715"	"C"	2	1
"GSM718716"	"C"	2	2
"GSM718723"	"A"	6	1
"GSM718724"	"A"	6	2
"GSM718725"	"A"	6	3
"GSM718726"	"B"	6	1
"GSM718727"	"B"	6	2
"GSM718728"	"B"	6	3
"GSM718721"	"C"	6	1
"GSM718722"	"C"	6	3
"GSM718731"	"A"	24	1
"GSM718732"	"A"	24	3
"GSM718733"	"B"	24	1
"GSM718734"	"B"	24	3
"GSM718729"	"C"	24	1
"GSM718730"	"C"	24	3
